%YAML 1.1
%TAG !u! tag:unity3d.com,2011:
--- !u!21 &2100000
Material:
  serializedVersion: 3
  m_ObjectHideFlags: 0
  m_PrefabParentObject: {fileID: 0}
  m_PrefabInternal: {fileID: 0}
  m_Name: palmbark
  m_Shader: {fileID: 10509, guid: 0000000000000000f000000000000000, type: 0}
  m_ShaderKeywords: []
  m_CustomRenderQueue: -1
  m_SavedProperties:
    serializedVersion: 2
    m_TexEnvs:
      data:
        first:
          name: _MainTex
        second:
          m_Texture: {fileID: 2800000, guid: 908a1c8ecd118f12a000e6888f962b59, type: 3}
          m_Scale: {x: 1, y: 1}
          m_Offset: {x: 0, y: 0}
      data:
        first:
          name: _BumpMap
        second:
          m_Texture: {fileID: 0}
          m_Scale: {x: 1, y: 1}
          m_Offset: {x: 0, y: 0}
      data:
        first:
          name: _ReflectionTex
        second:
          m_Texture: {fileID: 0}
          m_Scale: {x: 1, y: 1}
          m_Offset: {x: 0, y: 0}
      data:
        first:
          name: _RefractionTex
        second:
          m_Texture: {fileID: 0}
          m_Scale: {x: 1, y: 1}
          m_Offset: {x: 0, y: 0}
      data:
        first:
          name: _Fresnel
        second:
          m_Texture: {fileID: 0}
          m_Scale: {x: 1, y: 1}
          m_Offset: {x: 0, y: 0}
      data:
        first:
          name: _ColorControlCube
        second:
          m_Texture: {fileID: 0}
          m_Scale: {x: 1, y: 1}
          m_Offset: {x: 0, y: 0}
      data:
        first:
          name: _ColorControl
        second:
          m_Texture: {fileID: 0}
          m_Scale: {x: 1, y: 1}
          m_Offset: {x: 0, y: 0}
    m_Floats:
      data:
        first:
          name: _WaveScale
        second: .0700000003
      data:
        first:
          name: _ReflDistort
        second: .5
      data:
        first:
          name: _RefrDistort
        second: .400000006
      data:
        first:
          name: _BaseLight
        second: .330188692
      data:
        first:
          name: _AO
        second: 3.49056602
    m_Colors:
      data:
        first:
          name: _Color
        second: {r: 1, g: 1, b: 1, a: 1}
      data:
        first:
          name: _MainTex_ST
        second: {r: 1, g: 1, b: 0, a: 0}
      data:
        first:
          name: _Scale
        second: {r: 1, g: 1, b: 1, a: 1}
      data:
        first:
          name: _BumpMap_ST
        second: {r: 1, g: 1, b: 0, a: 0}
      data:
        first:
          name: WaveSpeed
        second: {r: 19, g: 9, b: -16, a: -7}
      data:
        first:
          name: _ReflectionTex_ST
        second: {r: 1, g: 1, b: 0, a: 0}
      data:
        first:
          name: _RefrColor
        second: {r: .340000004, g: .850000024, b: .920000017, a: 1}
      data:
        first:
          name: _Fresnel_ST
        second: {r: 1, g: 1, b: 0, a: 0}
      data:
        first:
          name: _RefractionTex_ST
        second: {r: 1, g: 1, b: 0, a: 0}
      data:
        first:
          name: _horizonColor
        second: {r: .172000006, g: .463, b: .435000002, a: 1}
      data:
        first:
          name: _ColorControl_ST
        second: {r: 1, g: 1, b: 0, a: 0}
      data:
        first:
          name: _ColorControlCube_ST
        second: {r: 1, g: 1, b: 0, a: 0}
--- !u!1002 &2100001
EditorExtensionImpl:
  serializedVersion: 6
